{
  "name": "development",
  "description": "Add here any environment specific stuff you like.",
  "deepLinkd": "hansen://gsfgg?msg=https://reservemn.usedirect.com/MinnesotaWeb/themes/Minnesota/dummy.pdf&mode=print",
  "deepLink*": "hansen://gsfgg?msg=U2FsdGVkX19g%2BJQK33etulU1Fa6YYC8oVizE%2FKe0ZV9sKgUm5k1vcQihNAwuoRyCKqXoLL0BQPpZy6V%2Bj3YQK2EdPwRzHSzeNlTjZRxwIeIAv5VBwnE4CJuXRkB3zzdL1bPwRTKo%2FbGJy%2FvaxqAgOA%3D%3D",
  "deepLink": "hansen://gsfgg?msg=http%3A%2F%2Flolcdevjbossjas%3A8080%2Fjasperserver-pro%2Fflow.html%3F_flowId%3DviewReportFlow%26standAlone%3Dtrue%26_flowId%3DviewReportFlow%26decorate%3Dno%26output%3Dpdf%26ParentFolderUri%3D%252Forganizations%252Flofcfusion%252Freports%26reportUnit%3D%252Forganizations%252Flofcfusion%252Freports%252Frpt_dad_mail%26P_NOTTYP%3D3%26P_REGAT%3D04-07-2017%26P_DUE%3D20170704%26P_SCM%3DD_005_S%26P_DATE%3D20170704%26P_USER%3DSURE%26pp%3DP-C0zAGLd5MwzjuNo_hVcQhzgfRmGgMXBvJH83QKNhleXPRMJlOlquBCwBmrNwHPpMvNhvk7nqQI%3FZUYCgcSsbO3L9tVcDoz7J6YX_7EfYqmWrelkZTJwUzyqWu71Us01LXMS4ig2i4N7PJcDPv47eAEa%3FM7keOiBVZtQ3EwISSylABI5fU1lyCs0O3aTZEQIjbz19iIlAXbQQft9fuvg3IMzOhppKAd23oct2%3FneT0YPI%3D&mode=print"
}